{
    "artifactory": {
        "server_id": {
            "default": "dw-release",
            "nightly": "dw-release",
            "staging": "dw-release",
            "production": "dw-release",
            "preview": "dw-release"
        },
        "generic_repo": {
            "default": "Internal-Builds",
            "nightly": "Community-Releases",
            "staging": "Internal-Builds",
            "production": "Community-Releases",
            "preview": "Community-Releases"
        }
    },
    "conan": {
        "remote": {
            "default": "dw-internal-builds",
            "nightly": "dw-community-releases",
            "staging": "dw-internal-builds",
            "production": "dw-community-releases",
            "preview": "dw-community-releases"
        },
        "user": {
            "default": "dw",
            "nightly": "dw",
            "staging": "dw",
            "production": "dw",
            "preview": "dw"
        },
        "channel": {
            "default": "testing",
            "nightly": "nightly",
            "staging": "staging",
            "production": "stable",
            "preview": "preview"
        },
        "config": {
            "url": "gitlab.digitalwerk.lan/ci-dw/dw_conan_settings.git",
            "branch": "jenkins-ci"
        }
    }
}